<?xml version="1.0" ?>

<sdf version="1.5">

  <world name="test">
    
    <physics type="bullet">
      <max_step_size>0.02</max_step_size>
      <real_time_factor>1.0</real_time_factor>
      <real_time_update_rate>50</real_time_update_rate>
      <max_contacts>1</max_contacts>
    </physics>

    <scene>
      <sky>
        <time>12.00</time>
        <sunrise>06.23</sunrise>
        <sunset>17.59</sunset>
        <clouds>
          <speed>12</speed>
        </clouds>
      </sky>
      <shadows>false</shadows>
    </scene>

    <spherical_coordinates>
      <surface_model>EARTH_WGS84</surface_model>
      <latitude_deg>51.712801940</latitude_deg>
      <longitude_deg>-0.211165687</longitude_deg>
      <elevation>141.5370</elevation>
      <heading_deg>0</heading_deg>
    </spherical_coordinates>

    <include>
      <uri>model://sun</uri>
    </include>

    <include>
      <uri>model://ground_plane</uri>
    </include>

    <include>
      <uri>model://bs</uri>
    </include>

    <include>
      <uri>model://receiver</uri>
    </include>

    <state world_name='default'>
      <sim_time>1412951480 0</sim_time>
    </state>

  </world>

</sdf>
